<svg xmlns="http://www.w3.org/2000/svg" width="19" height="15" viewBox="0 0 19 15">
    <g fill="#F5A623" fill-rule="evenodd">
        <path d="M13.412 0C16.749 1.504 19 4.347 19 7.607c0 3.11-2.051 5.843-5.14 7.393l-.053-1.766c2.095-1.366 3.353-3.41 3.353-5.627 0-2.34-1.402-4.484-3.696-5.841L13.412 0zM5.588 0C2.251 1.504 0 4.347 0 7.607 0 10.717 2.051 13.45 5.14 15l.053-1.766C3.098 11.868 1.84 9.824 1.84 7.607c0-2.34 1.402-4.484 3.696-5.841L5.588 0z"/>
        <path d="M8.326 12.692L4.648 8.588a.891.891 0 0 1 .038-1.114.681.681 0 0 1 .999-.043l2.641 2.947 4.989-5.565a.681.681 0 0 1 .999.043.891.891 0 0 1 .038 1.114l-6.026 6.722z"/>
    </g>
</svg>
